Calculate daytime VPD • ingestr
…
## Warning: Unknown columns: ``

df_fluxnet

## # A tibble: 365 x 3
##    date         vpd sitename
##    <date>     <dbl> <chr>   
##  1 2007-01-01 183.  FR-Pue  
##  2 2007-01-02 417.  FR-Pue  
##  3 2007-01-03 566.  FR-Pue  
##  4 2007-01-04 375.  FR-Pue  
##  5 2007-01-05 508.  FR-Pue  
##  6 2007-01-06 656.  FR-Pue  
##  7 2007-01-07 567.  FR-Pue  
##  8 2007-01-08 273.  FR-Pue  
##  9 2007-01-09 682.  FR-Pue  
## 10 2007-01-10  26.0 FR-Pue  
## # … with 355 more rows
…
