Examples for ingestr • ingestr
…
## Warning in as.POSIXlt.POSIXct(x, tz): unknown timezone 'zone/tz/2019c.1.0/
## zoneinfo/Europe/Zurich'

df_fluxnet

## # A tibble: 1,095 x 9
##    date        temp  prec    vpd     swin netrad  patm   ppfd sitename
##    <date>     <dbl> <dbl>  <dbl>    <dbl>  <dbl> <dbl>  <dbl> <chr>   
##  1 2010-01-01  1.50 4.62    7.81 2019773.     NA 91032  4.12  CH-Lae  
##  2 2010-01-02 -5.10 3.04   49.0  4958755.     NA 92928 10.1   CH-Lae  
##  3 2010-01-03 -5.22 0.001 133.   6840288      NA 93320 14.0   CH-Lae  
##  4 2010-01-04 -5.94 0      92.3  6632064      NA 92687 13.5   CH-Lae  
##  5 2010-01-05 -7.96 0      27.3  3333658.     NA 91863  6.80  CH-Lae  
##  6 2010-01-06 -6.33 1.11    9.04 1200528.     NA 91607  2.45  CH-Lae  
##  7 2010-01-07 -3.77 0.091  44.8  5301936      NA 92168 10.8   CH-Lae  
##  8 2010-01-08 -5.78 3.79   10.1   594691.     NA 92003  1.21  CH-Lae  
##  9 2010-01-09 -8.32 2.38   16.6   427507.     NA 91824  0.872 CH-Lae  
## 10 2010-01-10 -7.78 0.724  32.1  1383005.     NA 92482  2.82  CH-Lae  
## # … with 1,085 more rows
…
df_watch

## # A tibble: 1,095 x 3
##    sitename  temp date      
##    <chr>    <dbl> <date>    
##  1 CH-Lae    1.32 2010-01-01
##  2 CH-Lae   -3.77 2010-01-02
##  3 CH-Lae   -4.33 2010-01-03
##  4 CH-Lae   -4.53 2010-01-04
##  5 CH-Lae   -3.27 2010-01-05
##  6 CH-Lae   -2.71 2010-01-06
##  7 CH-Lae   -2.66 2010-01-07
##  8 CH-Lae   -3.47 2010-01-08
##  9 CH-Lae   -4.70 2010-01-09
## 10 CH-Lae   -4.71 2010-01-10
## # … with 1,085 more rows
…
## Warning in .varName(nc, varname, warn = warn): varname used is: tmx
## If that is not correct, you can set it to one of: tmx, stn

df_cru

## # A tibble: 1,095 x 3
##    date          temp sitename
##    <date>       <dbl> <chr>   
##  1 2010-01-01  0.511  CH-Lae  
##  2 2010-01-02  0.343  CH-Lae  
##  3 2010-01-03  0.189  CH-Lae  
##  4 2010-01-04  0.0493 CH-Lae  
##  5 2010-01-05 -0.0769 CH-Lae  
##  6 2010-01-06 -0.189  CH-Lae  
##  7 2010-01-07 -0.288  CH-Lae  
##  8 2010-01-08 -0.373  CH-Lae  
##  9 2010-01-09 -0.444  CH-Lae  
## 10 2010-01-10 -0.501  CH-Lae  
## # … with 1,085 more rows
…
