Description of how to get site data • ingestr
…
## Warning in .varName(nc, varname, warn = warn): varname used is: cld
## If that is not correct, you can set it to one of: cld, stn

df_cru

## # A tibble: 365 x 4
##    date       ccov_int  ccov sitename
##    <date>        <dbl> <dbl> <chr>   
##  1 2015-01-01     58.9  58.9 efg     
##  2 2015-01-02     58.1  58.1 efg     
##  3 2015-01-03     57.4  57.4 efg     
##  4 2015-01-04     56.8  56.8 efg     
##  5 2015-01-05     56.2  56.2 efg     
##  6 2015-01-06     55.7  55.7 efg     
##  7 2015-01-07     55.3  55.3 efg     
##  8 2015-01-08     54.9  54.9 efg     
##  9 2015-01-09     54.6  54.6 efg     
## 10 2015-01-10     54.3  54.3 efg     
## # … with 355 more rows
…
